Chapter 25 An intro to text analysis | Data Journalism with R and the Tidyverse
…
What about before?

pre2020 %>% 
  unnest_tokens(bigram, summary, token = "ngrams", n = 2) %>%
  separate(bigram, c("word1", "word2"), sep = " ") %>%
  filter(!word1 %in% stop_words$word) %>%
  filter(!word2 %in% stop_words$word) %>% 
  mutate(bigram = paste(word1, word2, sep=" ")) %>%
  filter(bigram == "student reported") %>%
  group_by(incident_code) %>%
  tally(sort=TRUE)

## # A tibble: 21 × 2
##    incident_code                                           n
##    <chr>                                               <int>
##  1 LOST OR STOLEN ITEM                                    17
##  2 ACCIDENTS - P.D. H&R NOT REPORTABLE                    11
##  3 DISTURBANCE - OTHER                                     9
##  4 LARCENY - FROM BUILDING                                 8
##  5 LARCENY - STOLEN BIKE                                   8
##  6 ACCIDENTS - P.D. NOT REPORTABLE                         4
##  7 LARCENY - FROM MOTOR VEHICLE                            4
##  8 SUSPICIOUS PERSON                                       4
##  9 FRAUD - CON GAMES/DECEPTION/FALSE    PRETENSE/OTHER     3
## 10 OUTSIDE - O.P.S. OTHER                                  3
## # … with 11 more rows
