Chapter 24 Basic Stats: The T-Test | Data Journalism with R and the Tidyverse
…
24.2 What else should we look at?

With a little magic using tidyr to transform the data (learn more about that here), we can get a peek at other call groups worth exploring.

calls %>% filter(month(RPT_Date) == 3) %>% group_by(RPT_Date, CFS_LEGEND) %>% summarize(total_calls = n()) %>% mutate(TimePeriod = case_when(
  RPT_Date < as.Date("2020-03-16") ~ "Previous",
  RPT_Date >= as.Date("2020-03-16") ~ "Current",
)) %>% filter(RPT_Date < as.Date("2020-04-01")) %>%
  group_by(TimePeriod, CFS_LEGEND) %>% summarize(avg_calls = mean(total_calls)) %>% pivot_wider(names_from = "TimePeriod", values_from = "avg_calls") %>% na.omit()

## `summarise()` has grouped output by 'RPT_Date'. You can override using the `.groups` argument.

## `summarise()` has grouped output by 'TimePeriod'. You can override using the `.groups` argument.

## # A tibble: 35 × 3
##    CFS_LEGEND   Current Previous
##    <chr>          <dbl>    <dbl>
##  1 ACCIDENT       14.4     25.2 
##  2 ALARM           7.87     7.56
##  3 ALCOHOL         4.33     6.02
##  4 ARSON           1        1.2 
##  5 ASSAULT         8.8     10.2 
##  6 BURGLARY        3.33     3.06
##  7 DISTURBANCE    56.1     48.9 
##  8 DRUGS           7.8      9.85
##  9 DUI             1.55     2.98
## 10 EMBEZZLEMENT    1.5      1.35
## # … with 25 more rows
…
