Chapter 13 Cleaning Data Part IV: PDFs | Data Journalism with R and the Tidyverse
…
voters_by_county <- read_csv("data/tabula-Eligible Active Voters by County - PG20.csv")

## Rows: 25 Columns: 10

## ── Column specification ────────────────────────────────────────────────────────
## Delimiter: ","
## chr (1): County

## 
## ℹ Use `spec()` to retrieve the full column specification for this data.
## ℹ Specify the column types or set `show_col_types = FALSE` to quiet this message.

voters_by_county

## # A tibble: 25 × 10
##    County              DEM    REP   BAR   GRN   LIB   WCP   OTH    UNA  TOTAL
##    <chr>             <dbl>  <dbl> <dbl> <dbl> <dbl> <dbl> <dbl>  <dbl>  <dbl>
##  1 Allegany          12820  22530    20    74   204    19   395   7674  43736
##  2 Anne Arundel     174494 135457   105   564  1922   197  2715  90162 405616
##  3 Baltimore City   311610  30163   130   802   951   290  3289  52450 399685
##  4 Baltimore County 313870 142534   134   898  2227   297  5872 100576 566408
##  5 Calvert           24587  28181    20    89   332    30   567  14178  67984
##  6 Caroline           6629  10039     2    33    86    17   163   4208  21177
##  7 Carroll           33662  63967    27   155   670    38  1072  25770 125361
##  8 Cecil             21601  30880     8   103   341    49   727  15110  68819
##  9 Charles           72416  24711    19   112   349    83   763  19849 118302
## 10 Dorchester         9848   8730     4    19    78    12   148   3348  22187
## # … with 15 more rows
…
