Chapter 14 Combining and joining | Data Journalism with R and the Tidyverse
…
In the best-case scenario, the two tables we want to join share a common column. In this case, both of our tables have a column called naics_code that has the same characteristics: both are six-digit numbers.

We can do this join multiple ways and get a similar result. We can put the Maryland file on the left and the NAICS codes on the right and use a left join to get them all together. And we use by= to join by the correct column. And to avoid rendering hundreds of rows of data, I’m going to count the rows at the end. The reason I’m going this is important: Rule 1 in joining data is having an idea of what you are expecting to get. So with a left join with applications on the left, I have 195,869 applications, so I expect to get 195,869 rows when I’m done.

maryland_ppp %>% left_join(naics_codes, by="naics_code") %>% select(name, naics_code, title) %>% nrow()

## [1] 195869

Remove the nrow and run it again for yourself. By default, dplyr will do a “natural” join, where it’ll match all the matching columns in both tables. So if we take out the by, it’ll use all the common columns between the tables. That may not be right in every instance but let’s try it. If it works, we should get 195,869 rows.

maryland_ppp %>% left_join(naics_codes) %>% select(name, naics_code, title)

## Joining, by = "naics_code"

## # A tibble: 195,869 × 3
##    name                                      naics_code title                   
##    <chr>                                          <dbl> <chr>                   
##  1 BAYWOOD HOTELS INC.                           721110 Hotels (except Casino H…
##  2 PARTNERS ELECTRIC SERVICE INC.                238210 Electrical Contractors …
##  3 RP3 LLC                                       541810 Advertising Agencies    
##  4 SUSHI KO CHEVY CHASE LLC.                     722511 Full-Service Restaurants
##  5 VILLAGE ACADEMY OF MARYLAND                   611110 Elementary and Secondar…
##  6 GOSHEN HOUSE TRADING LLC                      721199 All Other Traveler Acco…
##  7 WEAVER BOAT WORKS                             336612 Boat Building           
##  8 BOBS OVERHEAD DOOR REPAIR AND SERVICE INC     238290 Other Building Equipmen…
##  9 PARENTS FOR MONTESSORI EDUCATION INC          611110 Elementary and Secondar…
## 10 HARVEST PRINCE FREDERICK LLC                  722511 Full-Service Restaurants
## # … with 195,859 more rows
…
Let’s unpack this: R is saying it can’t join those two columns because one of them is a character column and the other is a double (number) column. When joining, the two columns need to have the same data type.

We can fix that using our pal mutate. Let’s change the ZCTA data to be a character, since zip codes aren’t really useful as numbers (nobody needs to know the average zip code value).

maryland_zcta <- maryland_zcta %>% mutate(across(ZCTA5N, as.character))

Now we can re-run the join:

maryland_ppp_with_naics_and_demographics <- maryland_ppp_with_naics %>% left_join(maryland_zcta, by=c("zip"="ZCTA5N"))

maryland_ppp_with_naics_and_demographics

## # A tibble: 195,869 × 95
##         id name  amount state address city  zip   naics_code business_type race 
##      <dbl> <chr>  <dbl> <chr> <chr>   <chr> <chr>      <dbl> <chr>         <chr>
##  1  9.38e7 BAYW… 2   e6 MD    9130 G… Colu… 2104…     721110 Corporation   Unan…
##  2  9.38e7 PART… 1.09e6 MD    4857 W… Lanh… 2070…     238210 Corporation   Unan…
##  3  9.38e7 RP3 … 7.88e5 MD    7250 W… Beth… 2081…     541810 Limited  Lia… Unan…
##  4  9.38e7 SUSH… 6.56e5 MD    5455 W… Chev… 2081…     722511 Limited  Lia… Unan…
##  5  9.38e7 VILL… 4.70e5 MD    8601 A… Capi… 2074…     611110 Limited  Lia… Unan…
##  6  9.38e7 GOSH… 3.46e5 MD    4310 P… Bren… 2072…     721199 Limited  Lia… Blac…
##  7  9.38e7 WEAV… 3.31e5 MD    389 De… Trac… 2077…     336612 Corporation   Unan…
##  8  9.38e7 BOBS… 3.18e5 MD    100 Ey… Essex 2122…     238290 Corporation   Unan…
##  9  9.38e7 PARE… 2.84e5 MD    1641 W… Anna… 2140…     611110 Non-Profit O… Unan…
## 10  9.38e7 HARV… 2.42e5 MD    680 Pr… Prin… 2067…     722511 Limited  Lia… Asian
## # … with 195,859 more rows, and 85 more variables: gender <chr>, veteran <chr>,
## #   non_profit <lgl>, jobs_retained <dbl>, date_approved <dttm>, lender <chr>,
## #   congressional_district <chr>, loan_number <dbl>, sba_office_code <dbl>,
## #   processing_method <chr>, loan_status <chr>, term <dbl>,
## #   sba_guaranty_percentage <dbl>, initial_approval_amount <dbl>,
## #   current_approval_amount <dbl>, undisbursed_amount <dbl>,
## #   franchise_name <chr>, servicing_lender_location_id <dbl>, …
…
