Chapter 10 Data Cleaning Part I: Data smells | Data Journalism with R and the Tidyverse
…
## 
## ℹ Use `spec()` to retrieve the full column specification for this data.
## ℹ Specify the column types or set `show_col_types = FALSE` to quiet this message.

Pay attention to the red warning that signals “one or more parsing issues.” It advises us to run the problems() function to see what went wrong. Let’s do that.

problems(ppp_maryland_loans)

## # A tibble: 87,927 × 5
##      row   col expected           actual     file 
##    <int> <int> <chr>              <chr>      <chr>
##  1     4    54 1/0/T/F/TRUE/FALSE 2021-05-12 ""   
##  2     5    48 1/0/T/F/TRUE/FALSE 42062      ""   
##  3     5    50 1/0/T/F/TRUE/FALSE 5539       ""   
##  4     5    54 1/0/T/F/TRUE/FALSE 2021-01-22 ""   
##  5     7    54 1/0/T/F/TRUE/FALSE 2021-05-21 ""   
##  6    10    54 1/0/T/F/TRUE/FALSE 2021-03-19 ""   
##  7    12    54 1/0/T/F/TRUE/FALSE 2021-03-17 ""   
##  8    14    54 1/0/T/F/TRUE/FALSE 2021-04-21 ""   
##  9    15    54 1/0/T/F/TRUE/FALSE 2021-02-23 ""   
## 10    18    54 1/0/T/F/TRUE/FALSE 2021-03-23 ""   
## # … with 87,917 more rows
…
We can do that by grouping and counting columns. In addition to identifying the presence of NA values, this method will also give us a sense of the distribution of values in those columns.

Let’s start with the “franchise” column. The following code groups by the franchise name column, counts the number in each group, and then sorts from highest to lowest.

There are 192,959 NA values in this column. This makes sense. Not every business will be a franchisee of a larger company like Subway or Dunkin’. In this case, the presence of so many NAs isn’t really concerning.

ppp_maryland_loans %>% 
  group_by(franchise_name) %>% 
  summarise(
    count=n()
  ) %>%
  arrange(desc(count))

## # A tibble: 582 × 2
##    franchise_name                                        count
##    <chr>                                                 <int>
##  1 <NA>                                                 192959
##  2 Subway                                                  275
##  3 7-Eleven, Inc - Individual Store Franchise Agreement    127
##  4 Dunkin' Donuts                                          109
##  5 IHOP                                                     53
##  6 Jiffy Lube                                               51
##  7 ZIPS Dry Cleaners                                        48
##  8 Holiday Inn Express (License Agreement)                  44
##  9 Dunkin' Donut/Baskin-Robbins Co-Brand                    42
## 10 Popeyes Louisiana Kitchen                                41
## # … with 572 more rows

Now let’s try the “forgiveness_amount” column, which represents the amount of the loan that was forgiven, or not required to be paid back. In this case, there are 135,073 NA values. The rest have different dollar amounts.

ppp_maryland_loans %>% 
  group_by(forgiveness_amount) %>% 
  summarise(
    count=n()
  ) %>%
  arrange(desc(count))

## # A tibble: 58,637 × 2
##    forgiveness_amount  count
##                 <dbl>  <int>
##  1                NA  135073
##  2             20977.     15
##  3             21011.     14
##  4             21009.     13
##  5             21025.     11
##  6             21003.     10
##  7             21010.     10
##  8             20985.      9
##  9             20970.      8
## 10             20972.      8
## # … with 58,627 more rows
…
