Chapter 12 Data Cleaning Part III: Open Refine | Data Journalism with R and the Tidyverse
…
Let’s load our full Maryland PPP loans data.

md_loans <- read_rds("data/ppp_loan_data/processed/md/ppp_loans_md.rmd")

Now let’s try and group and count the number of loans by city. To make it a bit more managable, let’s use another string function from stringr and filter for cities that start with the uppercase “A” or lowercase “a” using the function str_detect() with a regular expression. The filter function in the codeblock below says: look in the city column, and pluck out any value that starts with (the “^” symbol means “starts with”) a lowercase “a” OR (the vertical “|,” called a pipe, means OR) an uppercase “A.”

md_loans %>% 
  group_by(city) %>% 
  summarise(
    count=n()
  ) %>%
  filter(str_detect(city, "^a|^A")) %>%
  arrange(city)

## # A tibble: 62 × 2
##    city                    count
##    <chr>                   <int>
##  1 ABDULREZAK H ISSAC          1
##  2 Abell                       3
##  3 ABELL                       2
##  4 aberdeen                    3
##  5 Aberdeen                  456
##  6 ABERDEEN                  192
##  7 Aberdeen Proving Ground    13
##  8 ABERDEEN PROVING GROUND     2
##  9 Abereen                     1
## 10 abigdon                     2
## # … with 52 more rows
By using the OpenRefine package for R, refinr, our hope is that it can identify and standardize the data.

The first merging technique that’s part of the refinr package we’ll try is the key_collision_merge.

The key collision merge function takes each string and extracts the key parts of it. It then puts every key in a bin based on the keys matching.

One rule you should follow when using this is: do not overwrite your original fields. Always work on a copy. If you overwrite your original field, how will you know if it did the right thing? How can you compare it to your original data? To follow this, I’m going to mutate a new field called clean_city and put the results of key collision merge there.

cleaned_md_loans <- md_loans %>% 
  mutate(city_clean=key_collision_merge(city)) %>%
  select(id:city, city_clean, everything())

cleaned_md_loans

## # A tibble: 195,865 × 64
##          id name   slug   amount state address city  city_clean zip   naics_code
##       <dbl> <chr>  <chr>   <dbl> <chr> <chr>   <chr> <chr>      <chr>      <dbl>
##  1 99443772 TARBI… tarbi… 149000 MD    6785 B… Elkr… Elkridge   2107…     611110
##  2 99444241 J &AM… j-amp… 146000 MD    10413 … Unio… Union Bri… 21791     238310
##  3 99445051 DULAN… dulan… 140400 MD    4 Wind… PHOE… Phoenix    2113…     623110
##  4 99445208 QUART… quart… 139527 MD    4972 W… Rock… Rockville  20852     311920
##  5 99446123 ORCHA… orcha… 133400 MD    1855 W… Owin… Owings     2073…     561730
##  6 99446170 FRUIT… fruit… 133000 MD    402 MA… EAST… EASTON     2160…     531120
##  7 99446547 YOUNI… youni… 130520 MD    5000 T… Oakl… Oakland    2155…     621610
##  8 99448012 FRANK… frank… 121862 MD    14805 … Spar… Sparks     2115…     812990
##  9 99448137 RACE … race-… 121100 MD    1 RAIL… WEST… Westminst… 2115…     451110
## 10 99448298 VITAL… vital… 120165 MD    1701 P… Broo… Brookevil… 2083…     541330
## # … with 195,855 more rows, and 54 more variables: business_type <chr>,
## #   race <chr>, gender <chr>, veteran <chr>, non_profit <lgl>,
## #   jobs_retained <dbl>, date_approved <date>, lender <chr>,
## #   congressional_district <chr>, loan_range_sort_key <lgl>,
## #   previous_loan_range <lgl>, previous_name <lgl>, loan_number <dbl>,
## #   sba_office_code <dbl>, processing_method <chr>, loan_status <chr>,
## #   term <dbl>, sba_guaranty_percentage <dbl>, initial_approval_amount <dbl>, …

To examine changes refinr made, let’s examine the changes it made to cities that start with the letter “A.”

cleaned_md_loans %>% 
  group_by(city_clean, city) %>% 
  summarise(
    count=n()
  ) %>%
  filter(str_detect(city, "^a|^A")) %>%
  arrange(city)

## `summarise()` has grouped output by 'city_clean'. You can override using the `.groups` argument.

## # A tibble: 62 × 3
## # Groups:   city_clean [38]
##    city_clean              city                    count
##    <chr>                   <chr>                   <int>
##  1 ABDULREZAK H ISSAC      ABDULREZAK H ISSAC          1
##  2 Abell                   Abell                       3
##  3 Abell                   ABELL                       2
##  4 Aberdeen                aberdeen                    3
##  5 Aberdeen                Aberdeen                  456
##  6 Aberdeen                ABERDEEN                  192
##  7 Aberdeen Proving Ground Aberdeen Proving Ground    13
##  8 Aberdeen Proving Ground ABERDEEN PROVING GROUND     2
##  9 Abereen                 Abereen                     1
## 10 abigdon                 abigdon                     2
## # … with 52 more rows

It got a bunch of things right. It merged three variations of “Aberdeen” – “aberdeen,”“Aberdeen” and “ABERDEEN” – and it didn’t merge it with “Aberdeen Proving Ground,” which are likely two distinct things. But it wasn’t smart enough to convert “Abereen.”

It also merged “Annapolis” and “ANNAPOLIS” under “Annapolis,” and was smart enough not to merge it with “Annapolis Junction,” which is not the same city. But it wasn’t smart enough to merge “Annapoils” or “Annalpolis.”

There’s another merging algorithim that’s part of refinr that works a bit differently, called n_gram_merge(). Let’s try applying that one.

cleaned_md_loans <- md_loans %>% 
  mutate(city_clean=n_gram_merge(city)) %>%
  select(id:city, city_clean, everything()) 

cleaned_md_loans

## # A tibble: 195,865 × 64
##          id name   slug   amount state address city  city_clean zip   naics_code
##       <dbl> <chr>  <chr>   <dbl> <chr> <chr>   <chr> <chr>      <chr>      <dbl>
##  1 99443772 TARBI… tarbi… 149000 MD    6785 B… Elkr… Elkridge   2107…     611110
##  2 99444241 J &AM… j-amp… 146000 MD    10413 … Unio… Union Bri… 21791     238310
##  3 99445051 DULAN… dulan… 140400 MD    4 Wind… PHOE… Phoenix    2113…     623110
##  4 99445208 QUART… quart… 139527 MD    4972 W… Rock… Rockville  20852     311920
##  5 99446123 ORCHA… orcha… 133400 MD    1855 W… Owin… Owings     2073…     561730
##  6 99446170 FRUIT… fruit… 133000 MD    402 MA… EAST… EASTON     2160…     531120
##  7 99446547 YOUNI… youni… 130520 MD    5000 T… Oakl… Oakland    2155…     621610
##  8 99448012 FRANK… frank… 121862 MD    14805 … Spar… Sparks     2115…     812990
##  9 99448137 RACE … race-… 121100 MD    1 RAIL… WEST… Westminst… 2115…     451110
## 10 99448298 VITAL… vital… 120165 MD    1701 P… Broo… Brookevil… 2083…     541330
## # … with 195,855 more rows, and 54 more variables: business_type <chr>,
## #   race <chr>, gender <chr>, veteran <chr>, non_profit <lgl>,
## #   jobs_retained <dbl>, date_approved <date>, lender <chr>,
## #   congressional_district <chr>, loan_range_sort_key <lgl>,
## #   previous_loan_range <lgl>, previous_name <lgl>, loan_number <dbl>,
## #   sba_office_code <dbl>, processing_method <chr>, loan_status <chr>,
## #   term <dbl>, sba_guaranty_percentage <dbl>, initial_approval_amount <dbl>, …

To examine changes refinr made with this algorithm, let’s again look at cities that start with the letter “A.” Examining Aberdeen and Annapolis, we see there wasn’t a substantial change.

cleaned_md_loans %>% 
  group_by(city_clean, city) %>% 
  summarise(
    count=n()
  ) %>%
  filter(str_detect(city, "^a|^A")) %>%
  arrange(city)

## `summarise()` has grouped output by 'city_clean'. You can override using the `.groups` argument.

## # A tibble: 62 × 3
## # Groups:   city_clean [36]
##    city_clean              city                    count
##    <chr>                   <chr>                   <int>
##  1 ABDULREZAK H ISSAC      ABDULREZAK H ISSAC          1
##  2 Abell                   Abell                       3
##  3 Abell                   ABELL                       2
##  4 Aberdeen                aberdeen                    3
##  5 Aberdeen                Aberdeen                  456
##  6 Aberdeen                ABERDEEN                  192
##  7 Aberdeen Proving Ground Aberdeen Proving Ground    13
##  8 Aberdeen Proving Ground ABERDEEN PROVING GROUND     2
##  9 Abereen                 Abereen                     1
## 10 Abingdon                abigdon                     2
## # … with 52 more rows
…
