Chapter 11 Data Cleaning Part II: Janitor | Data Journalism with R and the Tidyverse
…
## See spec(...) for full column specifications.

From the output of readr, you can see all kinds of problems from the get go. Two columns are missing names entirely. Three columns repeat – first name, middle name and name extension. And many field names have spaces or other not-allowed characters. Not to mention: All of them are in ALL CAPS.

Janitor makes this easy to fix. How easy? This easy.

inmates %>% clean_names()

## # A tibble: 7,674 x 32
##    id_number committed_last_… first_name middle_name name_extension
##        <dbl> <chr>            <chr>      <chr>       <chr>         
##  1      6145 KANE             THOMAS     <NA>        <NA>          
##  2     20841 ARNOLD           WILLIAM    L           <NA>          
##  3     25324 WALKER           RICHARD    T           <NA>          
##  4     25565 ALVAREZ          THOMAS     A           <NA>          
##  5     26103 ADAMS            BRIAN      J           <NA>          
##  6     26547 KIRBY            RONALD     EUGENE      <NA>          
##  7     27471 NIEMANN          MAX        A           <NA>          
##  8     27666 ORTIZ            LAWRENCE   <NA>        <NA>          
##  9     27767 POINDEXTER       EDWARD     <NA>        <NA>          
## 10     27778 DITTRICH         LADDIE     F           <NA>          
## # … with 7,664 more rows, and 27 more variables: legal_last_name <chr>,
## #   first_name_1 <chr>, middle_name_1 <chr>, name_extension_1 <chr>,
## #   date_of_birth <chr>, race_desc <chr>, gender <chr>, facility <chr>,
## #   current_sentence_pardoned_or_commuted_date <chr>, gun_clause <lgl>,
## #   sentence_begin_date <chr>, min_term_year <chr>, min_month <dbl>,
## #   min_day <dbl>, max_term_year <chr>, max_month <dbl>, max_day <dbl>,
## #   parole_eligibility_date <chr>, earliest_possible_release_date <chr>,
## #   good_time_law <dbl>, inst_release_date <chr>, inst_release_type <chr>,
## #   parole_board_next_review_date_month_year <chr>,
…
