Chapter 21 Geographic analysis | Data Journalism with R and the Tidyverse
…
necounties <- counties %>% filter(STATEFP == "31")

Now that we’re in the same place as last time, let’s start asking questions of this data. For starters: how many hopsital beds are there in each county?

At first, we can look at the nehospitals data and see there’s a COUNTY field that would make for an easy group and summarize.

nehospitals %>% group_by(COUNTY) %>% summarize(total_beds=sum(BEDS))

## Simple feature collection with 67 features and 2 fields
## Geometry type: GEOMETRY
## Dimension:     XY
## Bounding box:  xmin: -103.6668 ymin: 40.02644 xmax: -95.60789 ymax: 42.87939
## Geodetic CRS:  WGS 84
## # A tibble: 67 × 3
##    COUNTY    total_beds                                                geometry
##    <chr>          <dbl>                                          <GEOMETRY [°]>
##  1 ADAMS            161                              POINT (-98.38807 40.59091)
##  2 ANTELOPE          25                              POINT (-98.03064 42.13475)
##  3 BOONE             25                              POINT (-98.00574 41.68304)
##  4 BOX BUTTE         25                              POINT (-102.8699 42.11684)
##  5 BOYD              20                              POINT (-98.46849 42.82457)
##  6 BROWN             23                              POINT (-99.84956 42.54451)
##  7 BUFFALO          261 MULTIPOINT ((-99.11259 40.68205), (-99.08158 40.70766))
##  8 BURT              18                              POINT (-96.45918 41.83485)
##  9 BUTLER            20                              POINT (-97.12253 41.24669)
## 10 CHASE             22                              POINT (-101.6507 40.52413)
## # … with 57 more rows
…
