Chapter 17 Intro to APIs: The Census | Data Journalism with R and the Tidyverse
…
library(tidyverse)
library(tidycensus)

To use the API, you need an API key. To get that, you need to apply for an API key with the Census Bureau. It takes a few minutes and you need to activate your key via email. Once you have your key, you need to set that for this session. Just FYI: Your key is your key. Do not share it around.

census_api_key("YOUR KEY HERE")

So to give you some idea of how complicated the data is, let’s pull up just one file from the decennial Census. We’ll use Summary File 1, or SF1. That has the major population and housing stuff.

sf1 <- load_variables(2010, "sf1", cache = TRUE)

sf1

## # A tibble: 8,959 × 3
##    name    label                                concept         
##    <chr>   <chr>                                <chr>           
##  1 H001001 Total                                HOUSING UNITS   
##  2 H002001 Total                                URBAN AND RURAL 
##  3 H002002 Total!!Urban                         URBAN AND RURAL 
##  4 H002003 Total!!Urban!!Inside urbanized areas URBAN AND RURAL 
##  5 H002004 Total!!Urban!!Inside urban clusters  URBAN AND RURAL 
##  6 H002005 Total!!Rural                         URBAN AND RURAL 
##  7 H002006 Total!!Not defined for this file     URBAN AND RURAL 
##  8 H003001 Total                                OCCUPANCY STATUS
##  9 H003002 Total!!Occupied                      OCCUPANCY STATUS
## 10 H003003 Total!!Vacant                        OCCUPANCY STATUS
## # … with 8,949 more rows

Note: There are thousands of variables in SF1. That’s not a typo. Open it in your environment by double clicking. As you scroll down, you’ll get an idea of what you’ve got to choose from.

If you think that’s crazy, try the SF3 file from 2000.

sf3 <- load_variables(2000, "sf3", cache = TRUE)

sf3

## # A tibble: 16,520 × 3
##    name    label                                       concept                  
##    <chr>   <chr>                                       <chr>                    
##  1 H001001 Total                                       HOUSING UNITS [1]        
##  2 H002001 Total                                       UNWEIGHTED SAMPLE HOUSIN…
##  3 H002002 Total!!Occupied                             UNWEIGHTED SAMPLE HOUSIN…
##  4 H002003 Total!!Vacant                               UNWEIGHTED SAMPLE HOUSIN…
##  5 H003001 Total                                       100-PERCENT COUNT OF HOU…
##  6 H004001 Percent of occupied housing units in sample PERCENT OF HOUSING UNITS…
##  7 H004002 Percent of vacant housing units in sample   PERCENT OF HOUSING UNITS…
##  8 H005001 Total                                       URBAN AND RURAL [7]      
##  9 H005002 Total!!Urban                                URBAN AND RURAL [7]      
## 10 H005003 Total!!Urban!!Inside urbanized areas        URBAN AND RURAL [7]      
## # … with 16,510 more rows
…
## Getting data from the 2006-2010 5-year ACS

What I’m going to do next is a lot, but each step is simple. I’m going to join the data together, so each county has one line of data. Then I’m going to rename some fields that repeat. Then I’m going to calculate the minimium and maximum value of the estimate using the margin of error. That’ll help me later. After that, I’m going to calculate a perent change and sort it by that change.

md10 %>%
  inner_join(md19, by=c("GEOID", "NAME")) %>%
  rename(estimate2010=estimate.x, estimate2019=estimate.y) %>%
  mutate(min2010 = estimate2010-moe.x, max2010 = estimate2010+moe.x, min2019 = estimate2019-moe.y, max2019 = estimate2019+moe.y) %>%
  select(-variable.x, -variable.y, -moe.x, -moe.y) %>%
  mutate(change = ((estimate2019-estimate2010)/estimate2010)*100) %>%
  arrange(change)

## # A tibble: 24 × 9
##    GEOID NAME  estimate2010 estimate2019 min2010 max2010 min2019 max2019  change
##    <chr> <chr>        <dbl>        <dbl>   <dbl>   <dbl>   <dbl>   <dbl>   <dbl>
##  1 24039 Some…        42443        37803   39092   45794   31139   44467 -10.9  
##  2 24011 Caro…        58799        58638   56740   60858   55018   62258  -0.274
##  3 24045 Wico…        50752        56956   49313   52191   54360   59552  12.2  
##  4 24037 St. …        80053        89845   77742   82364   86645   93045  12.2  
##  5 24017 Char…        88825       100003   87268   90382   97053  102953  12.6  
##  6 24047 Worc…        55487        63499   52749   58225   60574   66424  14.4  
##  7 24043 Wash…        52994        60860   51261   54727   59310   62410  14.8  
##  8 24023 Garr…        45760        52617   43729   47791   50065   55169  15.0  
##  9 24025 Harf…        77010        89147   75782   78238   87399   90895  15.8  
## 10 24031 Mont…        93373       108820   92535   94211  107811  109829  16.5  
## # … with 14 more rows
…
How about confirmed cases by country?

coronavirus %>% filter(type == "confirmed") %>% group_by(country) %>% summarize(total=sum(cases)) %>% arrange(desc(total))

## # A tibble: 193 × 2
##    country           total
##    <chr>             <dbl>
##  1 US             33217995
##  2 India          27555457
##  3 Brazil         16342162
##  4 France          5697076
##  5 Turkey          5220549
##  6 Russia          4977332
##  7 United Kingdom  4489552
##  8 Italy           4205970
##  9 Germany         3673990
## 10 Argentina       3663215
## # … with 183 more rows
…
