Chapter 7 Mutating data | Data Journalism with R and the Tidyverse
…
The code to calculate percent change is pretty simple. Remember, with summarize, we used n() to count things. With mutate, we use very similar syntax to calculate a new value – a new column of data – using other values in our dataset. So in this case, we’re trying to do (new-old)/old, but we’re doing it with fields.

If we look at what we got when we imported the data, you’ll see there’s POPESTIMATE2018 as the new data, and we’ll use POPESTIMATE2017 as the old data. So we’re looking at one year. Then, to help us, we’ll use arrange again to sort it, so we get the fastest growing county over one year.

population %>% mutate(
  change = (POPESTIMATE2018 - POPESTIMATE2017)/POPESTIMATE2017
) 

## # A tibble: 3,142 x 14
##    STNAME CTYNAME CENSUS2010POP ESTIMATESBASE20… POPESTIMATE2010 POPESTIMATE2011
##    <chr>  <chr>           <dbl>            <dbl>           <dbl>           <dbl>
##  1 Alaba… Autaug…         54571            54574           54754           55208
##  2 Alaba… Baldwi…        182265           182264          183111          186540
##  3 Alaba… Barbou…         27457            27457           27330           27350
##  4 Alaba… Bibb C…         22915            22920           22872           22747
##  5 Alaba… Blount…         57322            57321           57373           57554
##  6 Alaba… Bulloc…         10914            10911           10878           10677
##  7 Alaba… Butler…         20947            20943           20942           20878
##  8 Alaba… Calhou…        118572           118594          118477          117797
##  9 Alaba… Chambe…         34215            34171           34122           34030
## 10 Alaba… Cherok…         25989            25989           25974           25994
## # … with 3,132 more rows, and 8 more variables: POPESTIMATE2012 <dbl>,
## #   POPESTIMATE2013 <dbl>, POPESTIMATE2014 <dbl>, POPESTIMATE2015 <dbl>,
## #   POPESTIMATE2016 <dbl>, POPESTIMATE2017 <dbl>, POPESTIMATE2018 <dbl>,
## #   change <dbl>

Click the black arrow pointing right and you’ll see, way out on the right, your change column. But what do you see right away? Do those numbers look like we expect them to? No. They’re a decimal expressed as a percentage. So let’s fix that by multiplying by 100.

population %>% mutate(
  change = ((POPESTIMATE2018 - POPESTIMATE2017)/POPESTIMATE2017)*100
) 

## # A tibble: 3,142 x 14
##    STNAME CTYNAME CENSUS2010POP ESTIMATESBASE20… POPESTIMATE2010 POPESTIMATE2011
##    <chr>  <chr>           <dbl>            <dbl>           <dbl>           <dbl>
##  1 Alaba… Autaug…         54571            54574           54754           55208
##  2 Alaba… Baldwi…        182265           182264          183111          186540
##  3 Alaba… Barbou…         27457            27457           27330           27350
##  4 Alaba… Bibb C…         22915            22920           22872           22747
##  5 Alaba… Blount…         57322            57321           57373           57554
##  6 Alaba… Bulloc…         10914            10911           10878           10677
##  7 Alaba… Butler…         20947            20943           20942           20878
##  8 Alaba… Calhou…        118572           118594          118477          117797
##  9 Alaba… Chambe…         34215            34171           34122           34030
## 10 Alaba… Cherok…         25989            25989           25974           25994
## # … with 3,132 more rows, and 8 more variables: POPESTIMATE2012 <dbl>,
## #   POPESTIMATE2013 <dbl>, POPESTIMATE2014 <dbl>, POPESTIMATE2015 <dbl>,
## #   POPESTIMATE2016 <dbl>, POPESTIMATE2017 <dbl>, POPESTIMATE2018 <dbl>,
## #   change <dbl>

Now, does this ordering do anything for us? No. Let’s fix that with arrange.

population %>% mutate(
  change = ((POPESTIMATE2018 - POPESTIMATE2017)/POPESTIMATE2017)*100
)  %>% arrange(desc(change))

## # A tibble: 3,142 x 14
##    STNAME CTYNAME CENSUS2010POP ESTIMATESBASE20… POPESTIMATE2010 POPESTIMATE2011
##    <chr>  <chr>           <dbl>            <dbl>           <dbl>           <dbl>
##  1 Texas  Loving…            82               82              84              95
##  2 Color… San Ju…           699              699             708             690
##  3 North… McKenz…          6360             6359            6411            7007
##  4 Kentu… Lee Co…          7887             7887            7718            7708
##  5 North… Willia…         22398            22399           22588           24402
##  6 Texas  Comal …        108472           108485          109270          112072
##  7 Texas  Kenedy…           416              413             417             438
##  8 Texas  Kaufma…        103350           103363          103890          105213
##  9 North… Brunsw…        107431           107429          108065          110167
## 10 Flori… Walton…         55043            55043           55211           55590
## # … with 3,132 more rows, and 8 more variables: POPESTIMATE2012 <dbl>,
## #   POPESTIMATE2013 <dbl>, POPESTIMATE2014 <dbl>, POPESTIMATE2015 <dbl>,
## #   POPESTIMATE2016 <dbl>, POPESTIMATE2017 <dbl>, POPESTIMATE2018 <dbl>,
## #   change <dbl>
So who had the most growth last year from the year before? Is everyone moving to Loving County, Texas? Or is it small changes in a small county? Also, note North Dakota showing up twice in the top 10.

7.1 Another use of mutate

Note in our data we have separate State and County name fields. If we were publishing this, we wouldn’t want that.

So how can we fix that? Mutate! And a new function to combine text together called paste. Paste allows us to merge fields together easily with a separator. In our case, we want to combine the county name and the state name with a comma and a space between them.

population %>% 
  mutate(
    change = ((POPESTIMATE2018 - POPESTIMATE2017)/POPESTIMATE2017)*100,
    location = paste(CTYNAME, STNAME, sep=", ")) %>% 
  arrange(desc(change))

## # A tibble: 3,142 x 15
##    STNAME CTYNAME CENSUS2010POP ESTIMATESBASE20… POPESTIMATE2010 POPESTIMATE2011
##    <chr>  <chr>           <dbl>            <dbl>           <dbl>           <dbl>
##  1 Texas  Loving…            82               82              84              95
##  2 Color… San Ju…           699              699             708             690
##  3 North… McKenz…          6360             6359            6411            7007
##  4 Kentu… Lee Co…          7887             7887            7718            7708
##  5 North… Willia…         22398            22399           22588           24402
##  6 Texas  Comal …        108472           108485          109270          112072
##  7 Texas  Kenedy…           416              413             417             438
##  8 Texas  Kaufma…        103350           103363          103890          105213
##  9 North… Brunsw…        107431           107429          108065          110167
## 10 Flori… Walton…         55043            55043           55211           55590
## # … with 3,132 more rows, and 9 more variables: POPESTIMATE2012 <dbl>,
## #   POPESTIMATE2013 <dbl>, POPESTIMATE2014 <dbl>, POPESTIMATE2015 <dbl>,
## #   POPESTIMATE2016 <dbl>, POPESTIMATE2017 <dbl>, POPESTIMATE2018 <dbl>,
## #   change <dbl>, location <chr>
…
